lac_crime_analysis
…
Warning: One or more parsing issues, see `problems()` for details

Rows: 779803 Columns: 28
── Column specification ────────────────────────────────────────────────────────
Delimiter: ","
chr (17): DR_NO, Date Rptd, DATE OCC, TIME OCC, AREA, AREA NAME, Rpt Dist No...
dbl  (9): Part 1-2, Crm Cd, Vict Age, Premis Cd, Weapon Used Cd, Crm Cd 1, C...
lgl  (2): Crm Cd 3, Crm Cd 4

ℹ Use `spec()` to retrieve the full column specification for this data.
ℹ Specify the column types or set `show_col_types = FALSE` to quiet this message.

Crime_Data_from_2020_to_Present

# A tibble: 779,803 × 28
   DR_NO   Date …¹ DATE …² TIME …³ AREA  AREA …⁴ Rpt D…⁵ Part …⁶ Crm C…⁷ Crm C…⁸
   <chr>   <chr>   <chr>   <chr>   <chr> <chr>   <chr>     <dbl>   <dbl> <chr>  
 1 010304… 01/08/… 01/08/… 2230    03    Southw… 0377          2     624 BATTER…
 2 190101… 01/02/… 01/01/… 0330    01    Central 0163          2     624 BATTER…
 3 200110… 04/14/… 02/13/… 1200    01    Central 0155          2     845 SEX OF…
 4 191501… 01/01/… 01/01/… 1730    15    N Holl… 1543          2     745 VANDAL…
 5 191921… 01/01/… 01/01/… 0415    19    Mission 1998          2     740 VANDAL…
 6 200100… 01/02/… 01/01/… 0030    01    Central 0163          1     121 RAPE, …
 7 200100… 01/02/… 01/02/… 1315    01    Central 0161          1     442 SHOPLI…
 8 200100… 01/04/… 01/04/… 0040    01    Central 0155          2     946 OTHER …
 9 200100… 01/04/… 01/04/… 0200    01    Central 0101          1     341 THEFT-…
10 201710… 06/19/… 05/26/… 1925    17    Devons… 1708          1     341 THEFT-…
# … with 779,793 more rows, 18 more variables: Mocodes <chr>, `Vict Age` <dbl>,
#   `Vict Sex` <chr>, `Vict Descent` <chr>, `Premis Cd` <dbl>,
#   `Premis Desc` <chr>, `Weapon Used Cd` <dbl>, `Weapon Desc` <chr>,
#   Status <chr>, `Status Desc` <chr>, `Crm Cd 1` <dbl>, `Crm Cd 2` <dbl>,
#   `Crm Cd 3` <lgl>, `Crm Cd 4` <lgl>, LOCATION <chr>, `Cross Street` <chr>,
#   LAT <dbl>, LON <dbl>, and abbreviated variable names ¹​`Date Rptd`,
#   ²​`DATE OCC`, ³​`TIME OCC`, ⁴​`AREA NAME`, ⁵​`Rpt Dist No`, ⁶​`Part 1-2`, …

subset crime data

Crime_Data_from_2020_to_Present_Hollywood <- Crime_Data_from_2020_to_Present %>%
 filter(`AREA NAME` %in% c("N Hollywood", "West LA", "Hollywood"))

Crime_Data_from_2020_to_Present_Hollywood

# A tibble: 116,119 × 28
   DR_NO   Date …¹ DATE …² TIME …³ AREA  AREA …⁴ Rpt D…⁵ Part …⁶ Crm C…⁷ Crm C…⁸
   <chr>   <chr>   <chr>   <chr>   <chr> <chr>   <chr>     <dbl>   <dbl> <chr>  
 1 191501… 01/01/… 01/01/… 1730    15    N Holl… 1543          2     745 VANDAL…
 2 200815… 10/15/… 10/15/… 2000    08    West LA 0814          2     624 BATTER…
 3 210816… 11/24/… 04/28/… 0100    08    West LA 0859          2     354 THEFT …
 4 200810… 06/20/… 06/20/… 1000    08    West LA 0841          2     624 BATTER…
 5 200811… 06/24/… 06/23/… 2200    08    West LA 0898          2     624 BATTER…
 6 200812… 07/23/… 06/22/… 2005    08    West LA 0898          2     956 LETTER…
 7 200609… 04/15/… 04/12/… 1300    06    Hollyw… 0648          1     510 VEHICL…
 8 200815… 10/20/… 09/18/… 1400    08    West LA 0852          2     354 THEFT …
 9 200816… 11/08/… 11/07/… 1000    08    West LA 0849          2     886 DISTUR…
10 200815… 10/27/… 10/27/… 2010    08    West LA 0884          2     626 INTIMA…
# … with 116,109 more rows, 18 more variables: Mocodes <chr>, `Vict Age` <dbl>,
#   `Vict Sex` <chr>, `Vict Descent` <chr>, `Premis Cd` <dbl>,
#   `Premis Desc` <chr>, `Weapon Used Cd` <dbl>, `Weapon Desc` <chr>,
#   Status <chr>, `Status Desc` <chr>, `Crm Cd 1` <dbl>, `Crm Cd 2` <dbl>,
#   `Crm Cd 3` <lgl>, `Crm Cd 4` <lgl>, LOCATION <chr>, `Cross Street` <chr>,
#   LAT <dbl>, LON <dbl>, and abbreviated variable names ¹​`Date Rptd`,
#   ²​`DATE OCC`, ³​`TIME OCC`, ⁴​`AREA NAME`, ⁵​`Rpt Dist No`, ⁶​`Part 1-2`, …
…
